sim.vcd
$date
  Sun Dec 17 17:56:34 2023
$end
$version
  GHDL v0
$end
$timescale
  1 fs
$end
$var reg 1 ! clk $end
$var reg 1 " reset $end
$var reg 8 # destnation_register[7:0] $end
$var reg 8 $ program_counter[7:0] $end
$scope module processor $end
$var reg 1 % clk $end
$var reg 1 & reset $end
$var reg 8 ' program_counter[7:0] $end
$var reg 8 ( destnation_register[7:0] $end
$comment r is not handled $end
$var reg 8 ) rd[7:0] $end
$var reg 3 * alu_func[2:0] $end
$var reg 16 + instruction_register[15:0] $end
$var reg 1 , memory_rw $end
$var reg 1 - cf $end
$var reg 1 . zf $end
$upscope $end
$enddefinitions $end
#0
0!
U"
b00000000 #
b00000000 $
0%
U&
b00000000 '
b00000000 (
b00000000 )
b000 *
b0000000000000000 +
0,
0-
0.
#5000000
1!
b00000011 #
1%
b00000011 (
b011 *
b0111000000000011 +
#10000000
0!
0%
#15000000
1!
b00001010 #
b00000001 $
1%
b00000001 '
b00001010 (
b010 *
b0111001000001010 +
#20000000
0!
0%
#25000000
1!
b00000000 #
b00000010 $
1%
b00000010 '
b00000000 (
b000 *
b0111010000000000 +
1.
#30000000
0!
0%
#35000000
1!
b00000011 $
1%
b00000011 '
b0111111000000000 +
#40000000
0!
0%
#45000000
1!
b00001010 #
b00000100 $
1%
b00000100 '
b00001010 (
b0001001010010000 +
0.
#50000000
0!
0%
#55000000
1!
b00000010 #
b00000101 $
1%
b00000101 '
b00000010 (
b001 *
b0011000000000001 +
#60000000
0!
0%
#65000000
1!
b00000100 $
1%
b00000100 '
b100 *
b1011000111000100 +
#70000000
0!
0%
#75000000
1!
b00000001 #
b00000111 $
1%
b00000111 '
b00000001 (
b011 *
b0001010001011011 +
U-
#80000000
0!
0%
#85000000
1!
b00000000 #
b00001000 $
1%
b00001000 '
b00000000 (
b000 *
b0000000000000000 +
1.
#90000000
0!
0%
#95000000
1!
b00001001 $
1%
b00001001 '
#100000000
0!
0%
#105000000
1!
b00001010 $
1%
b00001010 '
#110000000
0!
0%
#115000000
1!
b00001011 $
1%
b00001011 '
#120000000
0!
0%
#125000000
1!
b00001100 $
1%
b00001100 '
#130000000
0!
0%
#135000000
1!
b00001101 $
1%
b00001101 '
#140000000
0!
0%
#145000000
1!
b00001110 $
1%
b00001110 '
#150000000
0!
0%
#155000000
1!
b00001111 $
1%
b00001111 '
#160000000
0!
0%
#165000000
1!
b00000011 #
b00010000 $
1%
b00010000 '
b00000011 (
b011 *
b0111000000000011 +
#170000000
0!
0%
#175000000
1!
b00001010 #
b00010001 $
1%
b00010001 '
b00001010 (
b010 *
b0111001000001010 +
#180000000
0!
0%
#185000000
1!
b00000000 #
b00010010 $
1%
b00010010 '
b00000000 (
b000 *
b0111010000000000 +
#190000000
0!
0%
#195000000
1!
b00010011 $
1%
b00010011 '
b0111111000000000 +
#200000000
0!
0%
#205000000
1!
b00001010 #
b00010100 $
1%
b00010100 '
b00001010 (
b0001001010010000 +
0-
0.
#210000000
0!
0%
#215000000
1!
b00000010 #
b00010101 $
1%
b00010101 '
b00000010 (
b001 *
b0011000000000001 +
#220000000
0!
0%
#225000000
1!
b00000100 $
1%
b00000100 '
b100 *
b1011000111000100 +
#230000000
0!
0%
#235000000
1!
b00000001 #
b00010111 $
1%
b00010111 '
b00000001 (
b011 *
b0001010001011011 +
U-
#240000000
0!
0%
#245000000
1!
b00000000 #
b00011000 $
1%
b00011000 '
b00000000 (
b000 *
b0000000000000000 +
1.
#250000000
0!
0%
#255000000
1!
b00011001 $
1%
b00011001 '
#260000000
0!
0%
#265000000
1!
b00011010 $
1%
b00011010 '
#270000000
0!
0%
#275000000
1!
b00011011 $
1%
b00011011 '
#280000000
0!
0%
#285000000
1!
b00011100 $
1%
b00011100 '
#290000000
0!
0%
#295000000
1!
b00011101 $
1%
b00011101 '
