sim.vcd
$date
  Sun Dec 17 21:21:49 2023
$end
$version
  GHDL v0
$end
$timescale
  1 fs
$end
$var reg 1 ! clk $end
$var reg 1 " reset $end
$var reg 8 # destnation_register[7:0] $end
$var reg 8 $ program_counter[7:0] $end
$scope module processor $end
$var reg 1 % clk $end
$var reg 1 & reset $end
$var reg 8 ' program_counter[7:0] $end
$var reg 8 ( destnation_register[7:0] $end
$comment r is not handled $end
$var reg 8 ) rd[7:0] $end
$var reg 3 * alu_func[2:0] $end
$var reg 16 + instruction_register[15:0] $end
$var reg 1 , memory_rw $end
$var reg 1 - cf $end
$var reg 1 . zf $end
$upscope $end
$enddefinitions $end
#0
0!
U"
b00000000 #
b00000000 $
0%
U&
b00000000 '
b00000000 (
b00000000 )
b000 *
b0000000000000000 +
0,
0-
0.
#5000000
1!
b00000010 #
1%
b00000010 (
b010 *
b0111110000000010 +
#10000000
0!
0%
#15000000
1!
b01100011 #
b00000001 $
1%
b00000001 '
b01100011 (
b011 *
b0111111001100011 +
#20000000
0!
0%
#25000000
1!
b00110001 #
b00000010 $
1%
b00000010 '
b00110001 (
b00110001 )
b0001111110010011 +
#30000000
0!
0%
#35000000
1!
b00000011 $
1%
b00000011 '
b0001111110011011 +
#40000000
0!
0%
#45000000
1!
b01100010 #
b00000100 $
1%
b00000100 '
b01100010 (
b01100010 )
b010 *
b0001011110100010 +
#50000000
0!
0%
#55000000
1!
b00000101 $
1%
b00000101 '
b110 *
b1010100111001110 +
#60000000
0!
0%
#65000000
1!
b00000011 #
b00000110 $
1%
b00000110 '
b00000011 (
b001 *
b0010110110000001 +
#70000000
0!
0%
#75000000
1!
b00000111 $
1%
b00000111 '
b011 *
b1100110010000011 +
#80000000
0!
0%
#85000000
1!
b00100001 #
b00000011 $
1%
b00000011 '
b00100001 (
b00100001 )
b0001111110011011 +
#90000000
0!
0%
#95000000
1!
b01100011 #
b00000100 $
1%
b00000100 '
b01100011 (
b01100011 )
b010 *
b0001011110100010 +
#100000000
0!
0%
#105000000
1!
b00000101 $
1%
b00000101 '
b110 *
b1010100111001110 +
#110000000
0!
0%
#115000000
1!
b00000001 #
b00001110 $
1%
b00001110 '
b00000001 (
b001 *
b0111101000000001 +
#120000000
0!
0%
#125000000
1!
b00001111 $
1%
b00001111 '
b000 *
b1111000000001000 +
#130000000
0!
0%
#135000000
1!
b00001000 $
1%
b00001000 '
b0010101101000000 +
#140000000
0!
0%
#145000000
1!
b00000000 #
b00001001 $
1%
b00001001 '
b00000000 (
b0000000000000000 +
1.
#150000000
0!
0%
#155000000
1!
b00001010 $
1%
b00001010 '
#160000000
0!
0%
#165000000
1!
b00001011 $
1%
b00001011 '
#170000000
0!
0%
#175000000
1!
b00001100 $
1%
b00001100 '
#180000000
0!
0%
#185000000
1!
b00001101 $
1%
b00001101 '
#190000000
0!
0%
#195000000
1!
b00000001 #
b00001110 $
1%
b00001110 '
b00000001 (
b001 *
b0111101000000001 +
#200000000
0!
0%
#205000000
1!
b00001111 $
1%
b00001111 '
b000 *
b1111000000001000 +
#210000000
0!
0%
#215000000
1!
b00001000 $
1%
b00001000 '
b0010101101000000 +
#220000000
0!
0%
#225000000
1!
b00000000 #
b00001001 $
1%
b00001001 '
b00000000 (
b0000000000000000 +
#230000000
0!
0%
#235000000
1!
b00001010 $
1%
b00001010 '
#240000000
0!
0%
#245000000
1!
b00001011 $
1%
b00001011 '
#250000000
0!
0%
#255000000
1!
b00001100 $
1%
b00001100 '
#260000000
0!
0%
#265000000
1!
b00001101 $
1%
b00001101 '
#270000000
0!
0%
#275000000
1!
b00000001 #
b00001110 $
1%
b00001110 '
b00000001 (
b001 *
b0111101000000001 +
#280000000
0!
0%
#285000000
1!
b00001111 $
1%
b00001111 '
b000 *
b1111000000001000 +
#290000000
0!
0%
#295000000
1!
b00001000 $
1%
b00001000 '
b0010101101000000 +
